<?xml version="1.0" encoding="UTF-8" standalone="no"?>
<!-- Created with Inkscape (http://www.inkscape.org/) -->

<svg
   xmlns:dc="http://purl.org/dc/elements/1.1/"
   xmlns:cc="http://creativecommons.org/ns#"
   xmlns:rdf="http://www.w3.org/1999/02/22-rdf-syntax-ns#"
   xmlns:svg="http://www.w3.org/2000/svg"
   xmlns="http://www.w3.org/2000/svg"
   xmlns:sodipodi="http://sodipodi.sourceforge.net/DTD/sodipodi-0.dtd"
   xmlns:inkscape="http://www.inkscape.org/namespaces/inkscape"
   width="210mm"
   height="297mm"
   viewBox="0 0 210 297"
   version="1.1"
   id="svg8"
   inkscape:version="0.92.4 (5da689c313, 2019-01-14)"
   sodipodi:docname="visuels_backstage_billetterie.svg">
  <defs
     id="defs2" />
  <sodipodi:namedview
     id="base"
     pagecolor="#ffffff"
     bordercolor="#666666"
     borderopacity="1.0"
     inkscape:pageopacity="0.0"
     inkscape:pageshadow="2"
     inkscape:zoom="0.98994949"
     inkscape:cx="1311.1544"
     inkscape:cy="950.09241"
     inkscape:document-units="mm"
     inkscape:current-layer="layer1"
     showgrid="false"
     showborder="false"
     inkscape:snap-global="false"
     inkscape:window-width="958"
     inkscape:window-height="1038"
     inkscape:window-x="0"
     inkscape:window-y="20"
     inkscape:window-maximized="0" />
  <metadata
     id="metadata5">
    <rdf:RDF>
      <cc:Work
         rdf:about="">
        <dc:format>image/svg+xml</dc:format>
        <dc:type
           rdf:resource="http://purl.org/dc/dcmitype/StillImage" />
        <dc:title></dc:title>
      </cc:Work>
    </rdf:RDF>
  </metadata>
  <g
     inkscape:label="Layer 1"
     inkscape:groupmode="layer"
     id="layer1">
    <rect
       id="rect3713"
       width="193.52382"
       height="93.738091"
       x="-170.84525"
       y="-127.84524"
       style="fill:#ff0000;stroke-width:0.26458332" />
    <flowRoot
       xml:space="preserve"
       id="flowRoot16"
       style="fill:black;fill-opacity:1;stroke:none;font-family:sans-serif;font-style:normal;font-weight:normal;font-size:40px;line-height:1.25;letter-spacing:0px;word-spacing:0px"><flowRegion
         id="flowRegion18"><rect
           id="rect20"
           width="691.42859"
           height="82.857147"
           x="-605.71429"
           y="-566.05176" /></flowRegion><flowPara
         id="flowPara22"></flowPara></flowRoot>    <flowRoot
       xml:space="preserve"
       id="flowRoot24"
       style="font-style:normal;font-weight:normal;font-size:40px;line-height:1.25;font-family:sans-serif;letter-spacing:0px;word-spacing:0px;fill:#000000;fill-opacity:1;stroke:none"
       transform="scale(0.26458333)"><flowRegion
         id="flowRegion26"><rect
           id="rect28"
           width="642.85712"
           height="68.571426"
           x="-605.71429"
           y="-560.33746" /></flowRegion><flowPara
         id="flowPara30"
         style="text-anchor:middle;text-align:center">Écran 1: choix de l'opération</flowPara></flowRoot>    <rect
       id="rect32"
       width="184.41597"
       height="83.92263"
       x="-165.70709"
       y="-122.07862"
       style="stroke-width:0.26458332;fill:#ffffff" />
    <rect
       style="fill:#ffaaaa;stroke-width:0.26458332"
       id="rect34"
       width="69.490074"
       height="14.432554"
       x="-160.89626"
       y="-116.73322" />
    <rect
       style="fill:#ffaaaa;stroke-width:0.26458332"
       id="rect36"
       width="69.490074"
       height="16.036171"
       x="-160.36172"
       y="-95.8862" />
    <rect
       style="fill:#ffaaaa;stroke-width:0.26458332"
       id="rect38"
       width="69.490074"
       height="12.294398"
       x="-159.82718"
       y="-72.901024" />
    <flowRoot
       xml:space="preserve"
       id="flowRoot40"
       style="font-style:normal;font-weight:normal;font-size:40px;line-height:1.25;font-family:sans-serif;letter-spacing:0px;word-spacing:0px;fill:#000000;fill-opacity:1;stroke:none"
       transform="scale(0.26458333)"><flowRegion
         id="flowRegion42"><rect
           id="rect44"
           width="256.57874"
           height="48.487324"
           x="-606.09155"
           y="-437.15585" /></flowRegion><flowPara
         id="flowPara46">Catégories</flowPara></flowRoot>    <flowRoot
       xml:space="preserve"
       id="flowRoot48"
       style="font-style:normal;font-weight:normal;font-size:40px;line-height:1.25;font-family:sans-serif;letter-spacing:0px;word-spacing:0px;fill:#000000;fill-opacity:1;stroke:none"
       transform="scale(0.26458333)"><flowRegion
         id="flowRegion50"><rect
           id="rect52"
           width="258.59906"
           height="54.548237"
           x="-606.09155"
           y="-360.38425" /></flowRegion><flowPara
         id="flowPara54">Types</flowPara></flowRoot>    <flowRoot
       xml:space="preserve"
       id="flowRoot56"
       style="font-style:normal;font-weight:normal;font-size:40px;line-height:1.25;font-family:sans-serif;letter-spacing:0px;word-spacing:0px;fill:#000000;fill-opacity:1;stroke:none"
       transform="matrix(0.26458333,0,0,0.26458333,0.53453905,-2.1381562)"><flowRegion
         id="flowRegion58"><rect
           id="rect60"
           width="258.59903"
           height="46.46701"
           x="-606.09155"
           y="-265.4299" /></flowRegion><flowPara
         id="flowPara62">Réductions</flowPara></flowRoot>    <rect
       id="rect3713-3"
       width="193.52382"
       height="93.738091"
       x="-171.59738"
       y="19.484041"
       style="fill:#ff0000;stroke-width:0.26458332" />
    <flowRoot
       transform="matrix(0.26458333,0,0,0.26458333,-0.75212729,147.32928)"
       xml:space="preserve"
       id="flowRoot24-6"
       style="font-style:normal;font-weight:normal;font-size:40px;line-height:1.25;font-family:sans-serif;letter-spacing:0px;word-spacing:0px;fill:#000000;fill-opacity:1;stroke:none"><flowRegion
         id="flowRegion26-7"><rect
           id="rect28-5"
           width="642.85712"
           height="68.571426"
           x="-605.71429"
           y="-560.33746" /></flowRegion><flowPara
         id="flowPara30-3"
         style="text-align:center;text-anchor:middle">Écran 2: tableau des catégories</flowPara></flowRoot>    <rect
       id="rect32-5"
       width="184.41597"
       height="83.92263"
       x="-166.45923"
       y="25.250658"
       style="fill:#ffffff;stroke-width:0.26458332" />
    <flowRoot
       transform="matrix(0.26458333,0,0,0.26458333,-185.38895,-252.83939)"
       xml:space="preserve"
       id="flowRoot4774"
       style="font-style:normal;font-weight:normal;font-size:26.66666794px;line-height:1.25;font-family:sans-serif;text-align:center;letter-spacing:0px;word-spacing:0px;text-anchor:middle;fill:#000000;fill-opacity:1;stroke:none"><flowRegion
         id="flowRegion4776"
         style="font-size:26.66666794px;text-align:center;text-anchor:middle"><rect
           id="rect4778"
           width="565.71082"
           height="40.95644"
           x="122.86932"
           y="911.33807"
           style="font-size:26.66666794px;text-align:center;text-anchor:middle" /></flowRegion><flowPara
         id="flowPara4780">(Si choisi catégorie)</flowPara></flowRoot>    <rect
       style="fill:#999999;stroke-width:0.26458332"
       id="rect106"
       width="173.7252"
       height="65.21376"
       x="-162.23259"
       y="29.463203" />
    <rect
       style="fill:#ffaaaa;stroke-width:0.26458332"
       id="rect108"
       width="36.883194"
       height="9.0871639"
       x="-160.36172"
       y="98.151466" />
    <rect
       style="fill:#ffaaaa;stroke-width:0.26458332"
       id="rect110"
       width="42.228584"
       height="9.6217022"
       x="-113.05502"
       y="97.349655" />
    <flowRoot
       xml:space="preserve"
       id="flowRoot112"
       style="font-style:normal;font-weight:normal;font-size:40px;line-height:1.25;font-family:sans-serif;letter-spacing:0px;word-spacing:0px;fill:#000000;fill-opacity:1;stroke:none"
       transform="matrix(0.26458333,0,0,0.26458333,0,-1.8708867)"><flowRegion
         id="flowRegion114"><rect
           id="rect116"
           width="650.53827"
           height="248.49753"
           x="-607.10168"
           y="115.3976" /></flowRegion><flowPara
         id="flowPara118"
         style="font-size:26.66666794px">nom      description                  nombre      prix</flowPara><flowPara
         style="font-size:26.66666794px"
         id="flowPara120">nom      description                  nombre      prix</flowPara><flowPara
         style="font-size:26.66666794px"
         id="flowPara122">nom      description                  nombre      prix</flowPara><flowPara
         style="font-size:26.66666794px"
         id="flowPara124">...</flowPara><flowPara
         style="font-size:26.66666794px"
         id="flowPara126">nom      description                  nombre      prix</flowPara></flowRoot>    <text
       xml:space="preserve"
       style="font-style:normal;font-weight:normal;font-size:10.58333302px;line-height:1.25;font-family:sans-serif;letter-spacing:0px;word-spacing:0px;fill:#000000;fill-opacity:1;stroke:none;stroke-width:0.26458332"
       x="-160.36171"
       y="106.43684"
       id="text130"><tspan
         sodipodi:role="line"
         id="tspan128"
         x="-160.36171"
         y="106.43684"
         style="stroke-width:0.26458332">Valider</tspan></text>
    <text
       xml:space="preserve"
       style="font-style:normal;font-weight:normal;font-size:10.58333302px;line-height:1.25;font-family:sans-serif;letter-spacing:0px;word-spacing:0px;fill:#000000;fill-opacity:1;stroke:none;stroke-width:0.26458332"
       x="-112.52047"
       y="106.16955"
       id="text134"><tspan
         sodipodi:role="line"
         id="tspan132"
         x="-112.52047"
         y="106.16955"
         style="stroke-width:0.26458332">Annuler</tspan></text>
    <rect
       id="rect3713-3-6"
       width="193.52382"
       height="93.738091"
       x="35.269245"
       y="18.473494"
       style="fill:#ff0000;stroke-width:0.26458332" />
    <flowRoot
       transform="matrix(0.26458333,0,0,0.26458333,206.1145,146.31873)"
       xml:space="preserve"
       id="flowRoot24-6-2"
       style="font-style:normal;font-weight:normal;font-size:40px;line-height:1.25;font-family:sans-serif;letter-spacing:0px;word-spacing:0px;fill:#000000;fill-opacity:1;stroke:none"><flowRegion
         id="flowRegion26-7-9"><rect
           id="rect28-5-1"
           width="642.85712"
           height="68.571426"
           x="-605.71429"
           y="-560.33746" /></flowRegion><flowPara
         id="flowPara30-3-2"
         style="text-align:center;text-anchor:middle">Écran 2: tableau des types</flowPara></flowRoot>    <rect
       id="rect32-5-7"
       width="184.41597"
       height="83.92263"
       x="40.407398"
       y="24.24011"
       style="fill:#ffffff;stroke-width:0.26458332" />
    <flowRoot
       transform="matrix(0.26458333,0,0,0.26458333,21.477673,-253.84993)"
       xml:space="preserve"
       id="flowRoot4774-0"
       style="font-style:normal;font-weight:normal;font-size:26.66666794px;line-height:1.25;font-family:sans-serif;text-align:center;letter-spacing:0px;word-spacing:0px;text-anchor:middle;fill:#000000;fill-opacity:1;stroke:none"><flowRegion
         id="flowRegion4776-9"
         style="font-size:26.66666794px;text-align:center;text-anchor:middle"><rect
           id="rect4778-3"
           width="565.71082"
           height="40.95644"
           x="122.86932"
           y="911.33807"
           style="font-size:26.66666794px;text-align:center;text-anchor:middle" /></flowRegion><flowPara
         id="flowPara4780-6">(Si choisi type)</flowPara></flowRoot>    <rect
       style="fill:#999999;stroke-width:0.26458332"
       id="rect106-0"
       width="173.7252"
       height="65.21376"
       x="44.634022"
       y="28.45265" />
    <rect
       style="fill:#ffaaaa;stroke-width:0.26458332"
       id="rect108-6"
       width="36.883194"
       height="9.0871639"
       x="46.504902"
       y="97.140915" />
    <rect
       style="fill:#ffaaaa;stroke-width:0.26458332"
       id="rect110-2"
       width="42.228584"
       height="9.6217022"
       x="93.811607"
       y="96.339111" />
    <flowRoot
       xml:space="preserve"
       id="flowRoot112-6"
       style="font-style:normal;font-weight:normal;font-size:40px;line-height:1.25;font-family:sans-serif;letter-spacing:0px;word-spacing:0px;fill:#000000;fill-opacity:1;stroke:none"
       transform="matrix(0.26458333,0,0,0.26458333,206.86662,-2.8814346)"><flowRegion
         id="flowRegion114-1"><rect
           id="rect116-8"
           width="650.53827"
           height="248.49753"
           x="-607.10168"
           y="115.3976" /></flowRegion><flowPara
         id="flowPara118-7"
         style="font-size:26.66666794px">nom      description                                nombre</flowPara><flowPara
         style="font-size:26.66666794px"
         id="flowPara120-9">nom      description                                nombre</flowPara><flowPara
         style="font-size:26.66666794px"
         id="flowPara122-2">nom      description                                nombre</flowPara><flowPara
         style="font-size:26.66666794px"
         id="flowPara124-0">...</flowPara><flowPara
         style="font-size:26.66666794px"
         id="flowPara126-2">nom      description                                nombre</flowPara></flowRoot>    <text
       xml:space="preserve"
       style="font-style:normal;font-weight:normal;font-size:10.58333302px;line-height:1.25;font-family:sans-serif;letter-spacing:0px;word-spacing:0px;fill:#000000;fill-opacity:1;stroke:none;stroke-width:0.26458332"
       x="46.504902"
       y="105.42628"
       id="text130-3"><tspan
         sodipodi:role="line"
         id="tspan128-7"
         x="46.504902"
         y="105.42628"
         style="stroke-width:0.26458332">Valider</tspan></text>
    <text
       xml:space="preserve"
       style="font-style:normal;font-weight:normal;font-size:10.58333302px;line-height:1.25;font-family:sans-serif;letter-spacing:0px;word-spacing:0px;fill:#000000;fill-opacity:1;stroke:none;stroke-width:0.26458332"
       x="94.346153"
       y="105.15901"
       id="text134-5"><tspan
         sodipodi:role="line"
         id="tspan132-9"
         x="94.346153"
         y="105.15901"
         style="stroke-width:0.26458332">Annuler</tspan></text>
    <rect
       id="rect3713-3-2"
       width="193.52382"
       height="93.738091"
       x="238.39409"
       y="17.938955"
       style="fill:#ff0000;stroke-width:0.26458332" />
    <flowRoot
       transform="matrix(0.26458333,0,0,0.26458333,409.23934,145.78419)"
       xml:space="preserve"
       id="flowRoot24-6-28"
       style="font-style:normal;font-weight:normal;font-size:40px;line-height:1.25;font-family:sans-serif;letter-spacing:0px;word-spacing:0px;fill:#000000;fill-opacity:1;stroke:none"><flowRegion
         id="flowRegion26-7-97"><rect
           id="rect28-5-3"
           width="642.85712"
           height="68.571426"
           x="-605.71429"
           y="-560.33746" /></flowRegion><flowPara
         id="flowPara30-3-6"
         style="text-align:center;text-anchor:middle">Écran 2: tableau des réductions</flowPara></flowRoot>    <rect
       id="rect32-5-1"
       width="184.41597"
       height="83.92263"
       x="243.26497"
       y="23.438303"
       style="fill:#ffffff;stroke-width:0.26458332" />
    <flowRoot
       transform="matrix(0.26458333,0,0,0.26458333,224.60251,-254.38447)"
       xml:space="preserve"
       id="flowRoot4774-2"
       style="font-style:normal;font-weight:normal;font-size:26.66666794px;line-height:1.25;font-family:sans-serif;text-align:center;letter-spacing:0px;word-spacing:0px;text-anchor:middle;fill:#000000;fill-opacity:1;stroke:none"><flowRegion
         id="flowRegion4776-93"
         style="font-size:26.66666794px;text-align:center;text-anchor:middle"><rect
           id="rect4778-1"
           width="565.71082"
           height="40.95644"
           x="122.86932"
           y="911.33807"
           style="font-size:26.66666794px;text-align:center;text-anchor:middle" /></flowRegion><flowPara
         id="flowPara4780-9">(Si choisi réduction)</flowPara></flowRoot>    <rect
       style="fill:#999999;stroke-width:0.2053649"
       id="rect106-4"
       width="173.7252"
       height="39.288616"
       x="247.75888"
       y="27.918116" />
    <rect
       style="fill:#ffaaaa;stroke-width:0.26458332"
       id="rect108-7"
       width="36.883194"
       height="9.0871639"
       x="249.62975"
       y="96.606377" />
    <rect
       style="fill:#ffaaaa;stroke-width:0.26458332"
       id="rect110-8"
       width="42.228584"
       height="9.6217022"
       x="296.93643"
       y="95.804573" />
    <flowRoot
       xml:space="preserve"
       id="flowRoot112-4"
       style="font-style:normal;font-weight:normal;font-size:40px;line-height:1.25;font-family:sans-serif;letter-spacing:0px;word-spacing:0px;fill:#000000;fill-opacity:1;stroke:none"
       transform="matrix(0.26458333,0,0,0.26458333,409.99146,-3.4159731)"><flowRegion
         id="flowRegion114-5"><rect
           id="rect116-0"
           width="600.03064"
           height="197.98991"
           x="-607.10168"
           y="115.3976" /></flowRegion><flowPara
         style="font-size:26.66666794px"
         id="flowPara122-1">code      description                  nombre      %</flowPara><flowPara
         style="font-size:26.66666794px"
         id="flowPara124-06">...</flowPara><flowPara
         style="font-size:26.66666794px"
         id="flowPara126-3">code      description                  nombre      %</flowPara></flowRoot>    <text
       xml:space="preserve"
       style="font-style:normal;font-weight:normal;font-size:10.58333302px;line-height:1.25;font-family:sans-serif;letter-spacing:0px;word-spacing:0px;fill:#000000;fill-opacity:1;stroke:none;stroke-width:0.26458332"
       x="249.62976"
       y="104.89175"
       id="text130-2"><tspan
         sodipodi:role="line"
         id="tspan128-0"
         x="249.62976"
         y="104.89175"
         style="stroke-width:0.26458332">Valider</tspan></text>
    <text
       xml:space="preserve"
       style="font-style:normal;font-weight:normal;font-size:10.58333302px;line-height:1.25;font-family:sans-serif;letter-spacing:0px;word-spacing:0px;fill:#000000;fill-opacity:1;stroke:none;stroke-width:0.26458332"
       x="297.47098"
       y="104.62447"
       id="text134-6"><tspan
         sodipodi:role="line"
         id="tspan132-1"
         x="297.47098"
         y="104.62447"
         style="stroke-width:0.26458332">Annuler</tspan></text>
    <rect
       style="fill:#ffaaaa;stroke-width:0.26458332"
       id="rect298"
       width="11.22532"
       height="10.958051"
       x="408.92236"
       y="29.730471" />
    <text
       xml:space="preserve"
       style="font-style:normal;font-weight:normal;font-size:10.58333302px;line-height:1.25;font-family:sans-serif;letter-spacing:0px;word-spacing:0px;fill:#000000;fill-opacity:1;stroke:none;stroke-width:0.26458332"
       x="412.39688"
       y="38.015827"
       id="text306"><tspan
         sodipodi:role="line"
         id="tspan304"
         x="412.39688"
         y="38.015827"
         style="stroke-width:0.26458332">-</tspan></text>
    <rect
       style="fill:#ffaaaa;stroke-width:0.26458332"
       id="rect298-5"
       width="11.22532"
       height="10.958051"
       x="408.92236"
       y="54.720177" />
    <text
       xml:space="preserve"
       style="font-style:normal;font-weight:normal;font-size:10.58333302px;line-height:1.25;font-family:sans-serif;letter-spacing:0px;word-spacing:0px;fill:#000000;fill-opacity:1;stroke:none;stroke-width:0.26458332"
       x="412.39688"
       y="63.005531"
       id="text306-6"><tspan
         sodipodi:role="line"
         id="tspan304-9"
         x="412.39688"
         y="63.005531"
         style="stroke-width:0.26458332">-</tspan></text>
    <rect
       style="fill:#ffaaaa;stroke-width:0.26458332"
       id="rect359"
       width="49.444862"
       height="7.7508163"
       x="248.02612"
       y="68.484558" />
    <text
       xml:space="preserve"
       style="font-style:normal;font-weight:normal;font-size:10.58333302px;line-height:1.25;font-family:sans-serif;letter-spacing:0px;word-spacing:0px;fill:#000000;fill-opacity:1;stroke:none;stroke-width:0.26458332"
       x="250.43153"
       y="74.097214"
       id="text363"><tspan
         sodipodi:role="line"
         id="tspan361"
         x="250.43153"
         y="74.097214"
         style="font-size:7.05555534px;stroke-width:0.26458332">Ajouter code</tspan></text>
    <text
       xml:space="preserve"
       style="font-style:normal;font-weight:normal;font-size:10.58333302px;line-height:1.25;font-family:sans-serif;letter-spacing:0px;word-spacing:0px;fill:#000000;fill-opacity:1;stroke:none;stroke-width:0.26458332"
       x="248.02612"
       y="83.184372"
       id="text367"><tspan
         sodipodi:role="line"
         id="tspan365"
         x="248.02612"
         y="83.184372"
         style="font-size:7.05555534px;stroke-width:0.26458332">Code promo solidaire                                  %</tspan></text>
    <text
       xml:space="preserve"
       style="font-style:normal;font-weight:normal;font-size:10.58333302px;line-height:1.25;font-family:sans-serif;letter-spacing:0px;word-spacing:0px;fill:#000000;fill-opacity:1;stroke:none;stroke-width:0.26458332"
       x="248.33334"
       y="91.812592"
       id="text367-3"><tspan
         sodipodi:role="line"
         id="tspan365-7"
         x="248.33334"
         y="91.812592"
         style="font-size:7.05555534px;stroke-width:0.26458332">Taux réduction licencié                               %</tspan></text>
  </g>
</svg>
